Running: xsim.dir/tx_rx_sim_top_behav/xsimk.exe -simmode gui -wdb tx_rx_sim_top_behav.wdb -simrunnum 0 -socket 49684
Design successfully loaded
Design Loading Memory Usage: 7116 KB (Peak: 7116 KB)
Design Loading CPU Usage: 30 ms
Simulation completed
Simulation Memory Usage: 40204 KB (Peak: 40204 KB)
Simulation CPU Usage: 921 ms
