argc=2
message:    Go mask=11226644 col_offset=32
.INIT_04 (256'h00000000_00000000_00000000_00000000_00000000_00000000_00000000_00000000),
.INIT_05 (256'h00000000_00000000_00000000_00000000_00000000_00000000_00000000_00000000),
.INIT_06 (256'h00000000_01200040_10200004_10000004_10000004_01226640_00000000_00000000),
.INIT_07 (256'h00000000_00000000_00000000_01220000_10006000_10006000_10006000_01220000),
