Design Route Status
                                               :      # nets :
   ------------------------------------------- : ----------- :
   # of logical nets.......................... :         193 :
       # of nets not needing routing.......... :          71 :
           # of internally routed nets........ :          71 :
       # of routable nets..................... :         122 :
           # of fully routed nets............. :         122 :
       # of nets with routing errors.......... :           0 :
   ------------------------------------------- : ----------- :

