# compile verilog/system verilog design source files
sv xil_defaultlib  \
"../../../../RTL/c_to_f.sv" \
"../../../../Sim/c_to_f_tb.sv" \

# compile glbl module
verilog xil_defaultlib "glbl.v"

# Do not sort compile order
nosort
