# compile verilog/system verilog design source files
sv xil_defaultlib  \
"../../../../rtl/colctr.sv" \
"../../../../rtl/delayunit.sv" \
"../../../../rtl/dffr.sv" \
"../../../../rtl/ledmatrix_top.sv" \
"../../../../rtl/period_enb.sv" \
"../../../../rtl/pixel_generator.sv" \
"../../../../rtl/rowctr.sv" \
"../../../../rtl/sclk_r.sv" \
"../../../../rtl/sequencer.sv" \
"../../../../rtl/sequencer_fsm.sv" \
"../../../../sim/top_tb.sv" \

# compile glbl module
verilog xil_defaultlib "glbl.v"

# Do not sort compile order
nosort
