Copyright 1986-2020 Xilinx, Inc. All Rights Reserved.
------------------------------------------------------------------------------------------
| Tool Version : Vivado v.2020.2 (win64) Build 3064766 Wed Nov 18 09:12:45 MST 2020
| Date         : Fri May  6 13:30:12 2022
| Host         : ECE419-92QV0Q2 running 64-bit major release  (build 9200)
| Command      : report_control_sets -verbose -file ledmatrix_top_control_sets_placed.rpt
| Design       : ledmatrix_top
| Device       : xc7a100t
------------------------------------------------------------------------------------------

Control Set Information

Table of Contents
-----------------
1. Summary
2. Histogram
3. Flip-Flop Distribution
4. Detailed Control Set Information

1. Summary
----------

+----------------------------------------------------------+-------+
|                          Status                          | Count |
+----------------------------------------------------------+-------+
| Total control sets                                       |     9 |
|    Minimum number of control sets                        |     9 |
|    Addition due to synthesis replication                 |     0 |
|    Addition due to physical synthesis replication        |     0 |
| Unused register locations in slices containing registers |    38 |
+----------------------------------------------------------+-------+
* Control sets can be merged at opt_design using control_set_merge or merge_equivalent_drivers
** Run report_qor_suggestions for automated merging and remapping suggestions


2. Histogram
------------

+--------------------+-------+
|       Fanout       | Count |
+--------------------+-------+
| Total control sets |     9 |
| >= 0 to < 4        |     2 |
| >= 4 to < 6        |     2 |
| >= 6 to < 8        |     1 |
| >= 8 to < 10       |     1 |
| >= 10 to < 12      |     1 |
| >= 12 to < 14      |     0 |
| >= 14 to < 16      |     0 |
| >= 16              |     2 |
+--------------------+-------+
* Control sets can be remapped at either synth_design or opt_design


3. Flip-Flop Distribution
-------------------------

+--------------+-----------------------+------------------------+-----------------+--------------+
| Clock Enable | Synchronous Set/Reset | Asynchronous Set/Reset | Total Registers | Total Slices |
+--------------+-----------------------+------------------------+-----------------+--------------+
| No           | No                    | No                     |               5 |            2 |
| No           | No                    | Yes                    |               0 |            0 |
| No           | Yes                   | No                     |              43 |           12 |
| Yes          | No                    | No                     |               0 |            0 |
| Yes          | No                    | Yes                    |               0 |            0 |
| Yes          | Yes                   | No                     |              50 |           16 |
+--------------+-----------------------+------------------------+-----------------+--------------+


4. Detailed Control Set Information
-----------------------------------

+----------------+------------------------------------------+------------------------------------------+------------------+----------------+--------------+
|  Clock Signal  |               Enable Signal              |             Set/Reset Signal             | Slice Load Count | Bel Load Count | Bels / Slice |
+----------------+------------------------------------------+------------------------------------------+------------------+----------------+--------------+
|  clk_IBUF_BUFG | U_SEQ/U_SEQ/Q[0]                         | U_SEQ/U_SEQ/FSM_onehot_state_reg[1]_0    |                1 |              1 |         1.00 |
|  clk_IBUF_BUFG | U_PIX/U_NMWR/U_NWFSM/E[0]                | U_PIX/U_NMWR/U_NWFSM/SR[0]               |                1 |              3 |         3.00 |
|  clk_IBUF_BUFG | U_PIX/U_NMWR/U_SP/E[0]                   | U_PIX/U_NMWR/U_DGCTR/digit_ct[3]_i_1_n_0 |                1 |              4 |         4.00 |
|  clk_IBUF_BUFG |                                          |                                          |                2 |              5 |         2.50 |
|  clk_IBUF_BUFG | U_SEQ/U_SEQ/FSM_onehot_state_reg[3]_0[0] | rst_IBUF                                 |                2 |              6 |         3.00 |
|  clk_IBUF_BUFG | U_SEQ/U_COLCTR/E[0]                      | U_SEQ/U_SEQ/SR[0]                        |                3 |              8 |         2.67 |
|  clk_IBUF_BUFG | U_PIX/U_BTN_SWITCH/E[0]                  | U_PIX/U_SCTR/scrollct[9]_i_1_n_0         |                3 |             10 |         3.33 |
|  clk_IBUF_BUFG | U_PIX/U_NMWR/U_DB/sel                    | U_PIX/U_NMWR/U_DB/pb_edge                |                5 |             18 |         3.60 |
|  clk_IBUF_BUFG |                                          | rst_IBUF                                 |               12 |             43 |         3.58 |
+----------------+------------------------------------------+------------------------------------------+------------------+----------------+--------------+


